-----BEGIN PGP PUBLIC KEY BLOCK-----

mDMEZRB/kBYJKwYBBAHaRw8BAQdAyFA8gv4UBqjuvclcleg06mPwoguaU3At8nTo
ajbI2JG0Mkxhc3NlIEtsaWVtYW5uIChzb2Z0d2FyZSkgPGxhc3NlQGxhc3Nla2xp
ZW1hbm4uZGU+iJkEExYKAEEWIQQlbQ42MgqjYXWkliu68/4KLgv8nAUCZRB/kAIb
AwUJCWYBgAULCQgHAgIiAgYVCgkICwIEFgIDAQIeBwIXgAAKCRC68/4KLgv8nANm
AQCWzoa8WmJdSiDdbIwz3OQgSnl2hFt4UiHIC1k2pXS4KwEAmfx6ayuhAeH7qh0+
MQ1XAv59LJ2R5Kcy+ejSf92KGwq4OARlEH+QEgorBgEEAZdVAQUBAQdAEDlDUZqe
h3nxZ34XcBgJqNOItG24JgZdFD20uojjznoDAQgHiH4EGBYKACYWIQQlbQ42Mgqj
YXWkliu68/4KLgv8nAUCZRB/kAIbDAUJCWYBgAAKCRC68/4KLgv8nNHlAP42SI55
AahKMCtOUCKzksYxodaI6hhUcgmcLa6siDVodQEAyRe7mdSDyd/I1ilLbgebZ75U
Nbc13P4fVAfY5F2xDAo=
=sgPm
-----END PGP PUBLIC KEY BLOCK-----
